﻿Tiempo;Voltaje;Corriente 
10:23:57;5,37;0,287
10:23:58;5,37;0,283
10:23:59;5,37;0,282
10:24:00;5,37;0,284
10:24:01;5,36;0,299
10:24:02;5,36;0,302
10:24:03;5,36;0,3
10:24:04;5,36;0,314
10:24:05;5,37;0,285
10:24:06;5,37;0,283
10:24:07;5,36;0,316
10:24:08;5,35;0,34
10:24:09;5,35;0,341
10:24:10;5,35;0,352
10:24:11;5,35;0,342
10:24:12;5,35;0,346
10:24:13;5,37;0,288
10:24:14;5,37;0,283
10:24:15;5,37;0,282
10:24:16;5,35;0,335
10:24:17;5,35;0,336
10:24:18;5,35;0,334
10:24:19;5,35;0,336
10:24:20;5,35;0,334
10:24:21;5,35;0,334
10:24:22;5,34;0,362
10:24:23;5,35;0,334
10:24:24;5,35;0,335
10:24:25;5,35;0,335
10:24:26;5,35;0,334
10:24:27;5,35;0,333
10:24:28;5,35;0,334
10:24:29;5,32;0,447
10:24:30;5,35;0,335
10:24:31;5,35;0,336
10:24:32;5,35;0,335
10:24:33;5,34;0,363
10:24:34;5,35;0,333
10:24:35;5,35;0,35
10:24:36;5,34;0,381
10:24:37;5,35;0,333
10:24:38;5,35;0,335
10:24:39;5,35;0,333
10:24:40;5,35;0,333
10:24:41;5,35;0,335
10:24:42;5,35;0,334
10:24:43;5,35;0,338
10:24:44;5,35;0,334
10:24:45;5,35;0,334
10:24:46;5,35;0,342
10:24:47;5,35;0,336
10:24:48;5,35;0,332
10:24:49;5,35;0,337
10:24:50;5,34;0,388
10:24:51;5,35;0,334
10:24:52;5,35;0,352
10:24:53;5,35;0,334
10:24:54;5,35;0,333
10:24:55;5,35;0,334
10:24:56;5,35;0,333
10:24:57;5,32;0,432
10:24:58;5,34;0,358
10:24:59;5,34;0,366
10:25:00;5,33;0,425
10:25:01;5,34;0,371
10:25:02;5,34;0,36
10:25:03;5,33;0,427
10:25:04;5,35;0,356
10:25:05;5,35;0,341
10:25:06;5,35;0,344
10:25:07;5,31;0,486
10:25:08;5,34;0,358
10:25:09;5,33;0,428
10:25:10;5,35;0,349
10:25:11;5,34;0,358
10:25:12;5,34;0,362
10:25:13;5,35;0,339
10:25:14;5,33;0,411
10:25:15;5,33;0,403
10:25:16;5,35;0,339
10:25:17;5,35;0,338
10:25:18;5,32;0,425
10:25:19;5,35;0,345
10:25:20;5,35;0,344
10:25:21;5,33;0,402
10:25:22;5,35;0,342
10:25:23;5,35;0,337
10:25:24;5,35;0,337
10:25:25;5,37;0,286
10:25:26;5,37;0,285
10:25:27;5,37;0,283
10:25:28;5,33;0,406
10:25:29;5,33;0,389
10:25:30;5,33;0,424
10:25:31;5,34;0,372
10:25:32;5,33;0,401
10:25:33;5,33;0,401
10:25:34;5,34;0,382
10:25:35;5,33;0,41
10:25:36;5,34;0,383
10:25:37;5,33;0,413
10:25:38;5,33;0,39
10:25:39;5,33;0,39
10:25:40;5,34;0,37
10:25:41;5,33;0,396
10:25:42;5,33;0,39
10:25:43;5,33;0,419
10:25:44;5,34;0,374
10:25:45;5,34;0,385
10:25:46;5,32;0,439
10:25:47;5,34;0,379
10:25:48;5,33;0,39
10:25:49;5,33;0,394
10:25:50;5,33;0,392
10:25:51;5,34;0,387
10:25:52;5,34;0,379
10:25:53;5,33;0,396
10:25:54;5,33;0,387
10:25:55;5,33;0,414
10:25:56;5,34;0,372
10:25:57;5,33;0,395
10:25:58;5,35;0,351
10:25:59;5,33;0,413
10:26:00;5,33;0,402
10:26:01;5,33;0,418
10:26:02;5,33;0,401
10:26:03;5,33;0,396
10:26:04;5,34;0,371
10:26:05;5,34;0,386
10:26:06;5,34;0,382
10:26:07;5,33;0,413
10:26:08;5,34;0,392
10:26:09;5,33;0,419
10:26:10;5,34;0,374
10:26:11;5,33;0,4
10:26:12;5,33;0,414
10:26:13;5,33;0,39
10:26:14;5,33;0,401
10:26:15;5,34;0,375
10:26:16;5,34;0,385
10:26:17;5,33;0,41
10:26:18;5,34;0,39
10:26:19;5,34;0,392
10:26:20;5,33;0,41
10:26:21;5,34;0,392
10:26:22;5,33;0,394
10:26:23;5,33;0,41
10:26:24;5,33;0,398
10:26:25;5,34;0,39
10:26:26;5,33;0,404
10:26:27;5,32;0,437
10:26:28;5,32;0,438
10:26:29;5,34;0,38
10:26:30;5,33;0,403
10:26:31;5,33;0,395
10:26:32;5,34;0,387
10:26:33;5,33;0,401
10:26:34;5,32;0,434
10:26:35;5,34;0,373
10:26:36;5,34;0,385
10:26:37;5,33;0,404
10:26:38;5,33;0,404
10:26:39;5,32;0,43
10:26:40;5,33;0,416
10:26:41;5,34;0,383
10:26:42;5,33;0,395
10:26:43;5,33;0,416
10:26:44;5,33;0,418
10:26:45;5,32;0,433
10:26:46;5,34;0,373
10:26:47;5,33;0,409
10:26:48;5,33;0,4
10:26:49;5,33;0,403
10:26:50;5,32;0,436
10:26:51;5,33;0,415
10:26:52;5,33;0,39
10:26:53;5,33;0,395
10:26:54;5,34;0,387
10:26:55;5,33;0,409
10:26:56;5,32;0,444
10:26:57;5,33;0,393
10:26:58;5,33;0,4
10:26:59;5,33;0,403
10:27:00;5,33;0,406
10:27:01;5,32;0,448
10:27:02;5,33;0,4
10:27:03;5,33;0,391
10:27:04;5,33;0,406
10:27:05;5,34;0,386
10:27:06;5,33;0,408
10:27:07;5,33;0,399
10:27:08;5,32;0,436
10:27:09;5,34;0,383
10:27:10;5,33;0,406
10:27:11;5,33;0,393
10:27:12;5,33;0,409
10:27:13;5,33;0,385
10:27:14;5,34;0,382
10:27:15;5,33;0,392
10:27:16;5,32;0,431
10:27:17;5,32;0,437
10:27:18;5,33;0,403
10:27:19;5,33;0,406
10:27:20;5,33;0,394
10:27:21;5,34;0,389
10:27:22;5,33;0,399
10:27:23;5,34;0,381
10:27:24;5,33;0,395
10:27:25;5,33;0,395
10:27:26;5,32;0,44
10:27:27;5,33;0,393
10:27:28;5,33;0,402
10:27:29;5,33;0,415
10:27:30;5,32;0,429
10:27:31;5,33;0,425
10:27:32;5,34;0,372
10:27:33;5,33;0,416
10:27:34;5,33;0,403
10:27:35;5,33;0,393
10:27:36;5,34;0,371
10:27:37;5,33;0,396
10:27:38;5,33;0,412
10:27:39;5,32;0,443
10:27:40;5,33;0,423
10:27:41;5,34;0,388
10:27:42;5,32;0,433
10:27:43;5,33;0,403
10:27:44;5,34;0,385
10:27:45;5,34;0,386
10:27:46;5,34;0,375
10:27:47;5,32;0,429
10:27:48;5,33;0,415
10:27:49;5,34;0,381
10:27:50;5,33;0,421
10:27:51;5,34;0,384
10:27:52;5,34;0,385
10:27:53;5,33;0,422
10:27:54;5,32;0,436
10:27:55;5,34;0,391
10:27:56;5,34;0,379
10:27:57;5,33;0,413
10:27:58;5,33;0,406
10:27:59;5,33;0,404
10:28:00;5,33;0,428
10:28:01;5,32;0,445
10:28:02;5,34;0,376
10:28:03;5,33;0,393
10:28:04;5,34;0,391
10:28:05;5,34;0,391
10:28:06;5,34;0,38
10:28:07;5,32;0,436
10:28:08;5,34;0,381
10:28:09;5,33;0,416
10:28:10;5,33;0,426
10:28:11;5,34;0,381
10:28:12;5,34;0,385
10:28:13;5,35;0,35
10:28:14;5,33;0,408
10:28:15;5,34;0,381
10:28:16;5,32;0,432
10:28:17;5,33;0,414
10:28:18;5,37;0,292
10:28:19;5,37;0,288
10:28:20;5,37;0,286
10:28:21;5,35;0,346
10:28:22;5,37;0,288
10:28:23;5,37;0,287
10:28:24;5,37;0,289
10:28:25;5,37;0,288
10:28:26;5,37;0,287
10:28:27;5,37;0,287
10:28:28;5,37;0,287
10:28:29;5,37;0,288
10:28:30;5,37;0,286
10:28:31;5,37;0,286
10:28:32;5,37;0,287
